digitcircuit/teamwork/project_1/project_1.srcs/sim_1/new/button_wave.vcd
$date
	Mon Feb 20 01:11:00 2023
$end
$version
	Icarus Verilog
$end
$timescale
	1ps
$end
$scope module button_sim $end
$var wire 1 ! OUT $end
$var reg 1 " CP $end
$var reg 1 # IN $end
$scope module u1 $end
$var wire 1 # X $end
$var wire 1 ! Y $end
$var wire 1 " clk $end
$var wire 1 $ CP $end
$var reg 1 % A $end
$var reg 3 & ST [2:0] $end
$var reg 32 ' f [31:0] $end
$scope module dvd $end
$var wire 1 " clk_1M $end
$var wire 32 ( mult [31:0] $end
$var wire 1 ) reset $end
$var reg 1 $ clk_1K $end
$var reg 32 * counter [31:0] $end
$upscope $end
$upscope $end
$upscope $end
$enddefinitions $end
#0
$dumpvars
b1 *
z)
b11 (
b11 '
b0 &
0%
0$
0#
1"
0!
$end
#3000
0"
#6000
b10 *
1"
#9000
0"
#12000
b11 *
1"
#15000
0"
#18000
b0 *
1$
1"
#21000
0"
#24000
b1 *
1"
#27000
0"
#30000
b10 *
1"
#33000
0"
#36000
b11 *
1"
#39000
0"
#42000
b0 *
0$
1"
#45000
0"
#48000
b1 *
1"
#51000
0"
#54000
b10 *
1"
#57000
0"
#60000
b11 *
1"
#63000
0"
#66000
b0 *
1$
1"
#69000
0"
#72000
b1 *
1"
#75000
0"
#78000
b10 *
1"
#81000
0"
#84000
b11 *
1"
#87000
0"
#90000
b0 *
0$
1"
#93000
0"
#96000
b1 *
1"
#99000
0"
#102000
b10 *
1"
#105000
0"
#108000
b11 *
1"
#110000
1#
#111000
0"
#114000
b1 &
b0 *
1$
1"
#117000
0"
#120000
b1 *
1"
0#
#123000
0"
#126000
b10 *
1"
#129000
0"
#130000
1#
#132000
b11 *
1"
#135000
0"
#138000
b0 *
0$
1"
#140000
0#
#141000
0"
#144000
b1 *
1"
#147000
0"
#150000
b10 *
1"
1#
#153000
0"
#156000
b11 *
1"
#159000
0"
#160000
0#
#162000
b10 &
b0 *
1$
1"
#165000
0"
#168000
b1 *
1"
#170000
1#
#171000
0"
#174000
b10 *
1"
#177000
0"
#180000
b11 *
1"
0#
#183000
0"
#186000
b0 *
0$
1"
#189000
0"
#190000
1#
#192000
b1 *
1"
#195000
0"
#198000
b10 *
1"
#201000
0"
#204000
b11 *
1"
#207000
0"
#210000
b1 &
b0 *
1$
1"
#213000
0"
#216000
b1 *
1"
#219000
0"
#222000
b10 *
1"
#225000
0"
#228000
b11 *
1"
#231000
0"
#234000
b0 *
0$
1"
#237000
0"
#240000
b1 *
1"
#243000
0"
#246000
b10 *
1"
#249000
0"
#252000
b11 *
1"
#255000
0"
#258000
1!
1%
b11 &
b0 *
1$
1"
#261000
0"
#264000
b1 *
1"
#267000
0"
#270000
b10 *
1"
#273000
0"
#276000
b11 *
1"
#279000
0"
#282000
b0 *
0$
1"
#285000
0"
#288000
b1 *
1"
#291000
0"
#294000
b10 *
1"
#297000
0"
#300000
b11 *
1"
#303000
0"
#306000
b0 *
1$
1"
#309000
0"
#312000
b1 *
1"
#315000
0"
#318000
b10 *
1"
#321000
0"
#324000
b11 *
1"
#327000
0"
#330000
b0 *
0$
1"
#333000
0"
#336000
b1 *
1"
#339000
0"
#342000
b10 *
1"
#345000
0"
#348000
b11 *
1"
#351000
0"
#354000
b0 *
1$
1"
#357000
0"
#360000
b1 *
1"
#363000
0"
#366000
b10 *
1"
#369000
0"
#372000
b11 *
1"
#375000
0"
#378000
b0 *
0$
1"
#381000
0"
#384000
b1 *
1"
#387000
0"
#390000
b10 *
1"
#393000
0"
#396000
b11 *
1"
#399000
0"
#402000
b0 *
1$
1"
#405000
0"
#408000
b1 *
1"
#411000
0"
#414000
b10 *
1"
#417000
0"
#420000
b11 *
1"
#423000
0"
#426000
b0 *
0$
1"
#429000
0"
#432000
b1 *
1"
#435000
0"
#438000
b10 *
1"
#441000
0"
#444000
b11 *
1"
#447000
0"
#450000
b0 *
1$
1"
#453000
0"
#456000
b1 *
1"
#459000
0"
#462000
b10 *
1"
#465000
0"
#468000
b11 *
1"
#471000
0"
#474000
b0 *
0$
1"
#477000
0"
#480000
b1 *
1"
#483000
0"
#486000
b10 *
1"
#489000
0"
#492000
b11 *
1"
#495000
0"
#498000
b0 *
1$
1"
#501000
0"
#504000
b1 *
1"
#507000
0"
#510000
b10 *
1"
#513000
0"
#516000
b11 *
1"
#519000
0"
#522000
b0 *
0$
1"
#525000
0"
#528000
b1 *
1"
#531000
0"
#534000
b10 *
1"
#537000
0"
#540000
b11 *
1"
#543000
0"
#546000
b0 *
1$
1"
#549000
0"
#552000
b1 *
1"
#555000
0"
#558000
b10 *
1"
#561000
0"
#564000
b11 *
1"
#567000
0"
#570000
b0 *
0$
1"
#573000
0"
#576000
b1 *
1"
#579000
0"
#582000
b10 *
1"
#585000
0"
#588000
b11 *
1"
#591000
0"
#594000
b0 *
1$
1"
#597000
0"
#600000
b1 *
1"
#603000
0"
#606000
b10 *
1"
#609000
0"
#612000
b11 *
1"
#615000
0"
#618000
b0 *
0$
1"
#621000
0"
#624000
b1 *
1"
#627000
0"
#630000
b10 *
1"
#633000
0"
#636000
b11 *
1"
#639000
0"
#642000
b0 *
1$
1"
#645000
0"
#648000
b1 *
1"
#651000
0"
#654000
b10 *
1"
#657000
0"
#660000
b11 *
1"
#663000
0"
#666000
b0 *
0$
1"
#669000
0"
#672000
b1 *
1"
#675000
0"
#678000
b10 *
1"
#681000
0"
#684000
b11 *
1"
#687000
0"
#690000
b0 *
1$
1"
#693000
0"
#696000
b1 *
1"
#699000
0"
#702000
b10 *
1"
#705000
0"
#708000
b11 *
1"
#711000
0"
#714000
b0 *
0$
1"
#717000
0"
#720000
b1 *
1"
#723000
0"
#726000
b10 *
1"
#729000
0"
#732000
b11 *
1"
#735000
0"
#738000
b0 *
1$
1"
#741000
0"
#744000
b1 *
1"
#747000
0"
#750000
b10 *
1"
#753000
0"
#756000
b11 *
1"
#759000
0"
#762000
b0 *
0$
1"
#765000
0"
#768000
b1 *
1"
#771000
0"
#774000
b10 *
1"
#777000
0"
#780000
b11 *
1"
#783000
0"
#786000
b0 *
1$
1"
#789000
0"
#792000
b1 *
1"
#795000
0"
#798000
b10 *
1"
#800000
0#
#801000
0"
#804000
b11 *
1"
#807000
0"
#810000
b0 *
0$
1"
1#
#813000
0"
#816000
b1 *
1"
#819000
0"
#820000
0#
#822000
b10 *
1"
#825000
0"
#828000
b11 *
1"
#830000
1#
#831000
0"
#834000
b0 *
1$
1"
#837000
0"
#840000
b1 *
1"
0#
#843000
0"
#846000
b10 *
1"
#849000
0"
#850000
1#
#852000
b11 *
1"
#855000
0"
#858000
b0 *
0$
1"
#860000
0#
#861000
0"
#864000
b1 *
1"
#867000
0"
#870000
b10 *
1"
1#
#873000
0"
#876000
b11 *
1"
#879000
0"
#880000
0#
#882000
b100 &
b0 *
1$
1"
#885000
0"
#888000
b1 *
1"
#891000
0"
#894000
b10 *
1"
#897000
0"
#900000
b11 *
1"
#903000
0"
#906000
b0 *
0$
1"
#909000
0"
#912000
b1 *
1"
#915000
0"
#918000
b10 *
1"
#921000
0"
#924000
b11 *
1"
#927000
0"
#930000
0!
0%
b0 &
b0 *
1$
1"
#933000
0"
#936000
b1 *
1"
#939000
0"
#942000
b10 *
1"
#945000
0"
#948000
b11 *
1"
#951000
0"
#954000
b0 *
0$
1"
#957000
0"
#960000
b1 *
1"
#963000
0"
#966000
b10 *
1"
#969000
0"
#972000
b11 *
1"
#975000
0"
#978000
b0 *
1$
1"
#981000
0"
#984000
b1 *
1"
#987000
0"
#990000
b10 *
1"
#993000
0"
#996000
b11 *
1"
#999000
0"
#1002000
b0 *
0$
1"
#1005000
0"
#1008000
b1 *
1"
#1011000
0"
#1014000
b10 *
1"
#1017000
0"
#1020000
b11 *
1"
#1023000
0"
#1026000
b0 *
1$
1"
#1029000
0"
#1032000
b1 *
1"
#1035000
0"
#1038000
b10 *
1"
#1041000
0"
#1044000
b11 *
1"
#1047000
0"
#1050000
b0 *
0$
1"
#1053000
0"
#1056000
b1 *
1"
#1059000
0"
#1062000
b10 *
1"
#1065000
0"
#1068000
b11 *
1"
#1071000
0"
#1074000
b0 *
1$
1"
#1077000
0"
#1080000
b1 *
1"
#1083000
0"
#1086000
b10 *
1"
#1089000
0"
#1092000
b11 *
1"
#1095000
0"
#1098000
b0 *
0$
1"
#1101000
0"
#1104000
b1 *
1"
#1107000
0"
#1110000
b10 *
1"
#1113000
0"
#1116000
b11 *
1"
#1119000
0"
#1122000
b0 *
1$
1"
#1125000
0"
#1128000
b1 *
1"
#1131000
0"
#1134000
b10 *
1"
#1137000
0"
#1140000
b11 *
1"
#1143000
0"
#1146000
b0 *
0$
1"
#1149000
0"
#1152000
b1 *
1"
#1155000
0"
#1158000
b10 *
1"
#1161000
0"
#1164000
b11 *
1"
#1167000
0"
#1170000
b0 *
1$
1"
#1173000
0"
#1176000
b1 *
1"
#1179000
0"
#1182000
b10 *
1"
#1185000
0"
#1188000
b11 *
1"
#1191000
0"
#1194000
b0 *
0$
1"
#1197000
0"
#1200000
b1 *
1"
#1203000
0"
#1206000
b10 *
1"
#1209000
0"
#1212000
b11 *
1"
#1215000
0"
#1218000
b0 *
1$
1"
#1221000
0"
#1224000
b1 *
1"
#1227000
0"
#1230000
b10 *
1"
#1233000
0"
#1236000
b11 *
1"
#1239000
0"
#1242000
b0 *
0$
1"
#1245000
0"
#1248000
b1 *
1"
#1251000
0"
#1254000
b10 *
1"
#1257000
0"
#1260000
b11 *
1"
#1263000
0"
#1266000
b0 *
1$
1"
#1269000
0"
#1272000
b1 *
1"
#1275000
0"
#1278000
b10 *
1"
#1281000
0"
#1284000
b11 *
1"
#1287000
0"
#1290000
b0 *
0$
1"
#1293000
0"
#1296000
b1 *
1"
#1299000
0"
#1302000
b10 *
1"
#1305000
0"
#1308000
b11 *
1"
#1311000
0"
#1314000
b0 *
1$
1"
#1317000
0"
#1320000
b1 *
1"
#1323000
0"
#1326000
b10 *
1"
#1329000
0"
#1332000
b11 *
1"
#1335000
0"
#1338000
b0 *
0$
1"
#1341000
0"
#1344000
b1 *
1"
#1347000
0"
#1350000
b10 *
1"
#1353000
0"
#1356000
b11 *
1"
#1359000
0"
#1362000
b0 *
1$
1"
#1365000
0"
#1368000
b1 *
1"
#1371000
0"
#1374000
b10 *
1"
#1377000
0"
#1380000
b11 *
1"
#1383000
0"
#1386000
b0 *
0$
1"
#1389000
0"
#1392000
b1 *
1"
#1395000
0"
#1398000
b10 *
1"
#1401000
0"
#1404000
b11 *
1"
#1407000
0"
#1410000
b0 *
1$
1"
#1413000
0"
#1416000
b1 *
1"
#1419000
0"
#1422000
b10 *
1"
#1425000
0"
#1428000
b11 *
1"
#1431000
0"
#1434000
b0 *
0$
1"
#1437000
0"
#1440000
b1 *
1"
#1443000
0"
#1446000
b10 *
1"
#1449000
0"
#1452000
b11 *
1"
#1455000
0"
#1458000
b0 *
1$
1"
#1461000
0"
#1464000
b1 *
1"
#1467000
0"
#1470000
b10 *
1"
#1473000
0"
#1476000
b11 *
1"
#1479000
0"
#1482000
b0 *
0$
1"
#1485000
0"
#1488000
b1 *
1"
#1490000
1#
#1491000
0"
#1494000
b10 *
1"
#1497000
0"
#1500000
b11 *
1"
0#
#1503000
0"
#1506000
b0 *
1$
1"
#1509000
0"
#1510000
1#
#1512000
b1 *
1"
#1515000
0"
#1518000
b10 *
1"
#1520000
0#
#1521000
0"
#1524000
b11 *
1"
#1527000
0"
#1530000
b0 *
0$
1"
1#
#1533000
0"
#1536000
b1 *
1"
#1539000
0"
#1540000
0#
#1542000
b10 *
1"
#1545000
0"
#1548000
b11 *
1"
#1550000
1#
#1551000
0"
#1554000
b1 &
b0 *
1$
1"
#1557000
0"
#1560000
b1 *
1"
0#
#1563000
0"
#1566000
b10 *
1"
#1569000
0"
#1570000
1#
#1572000
b11 *
1"
#1575000
0"
#1578000
b0 *
0$
1"
#1581000
0"
#1584000
b1 *
1"
#1587000
0"
#1590000
b10 *
1"
#1593000
0"
#1596000
b11 *
1"
#1599000
0"
#1602000
1!
1%
b11 &
b0 *
1$
1"
#1605000
0"
#1608000
b1 *
1"
#1611000
0"
#1614000
b10 *
1"
#1617000
0"
#1620000
b11 *
1"
#1623000
0"
#1626000
b0 *
0$
1"
#1629000
0"
#1632000
b1 *
1"
#1635000
0"
#1638000
b10 *
1"
#1641000
0"
#1644000
b11 *
1"
#1647000
0"
#1650000
b0 *
1$
1"
#1653000
0"
#1656000
b1 *
1"
#1659000
0"
#1662000
b10 *
1"
#1665000
0"
#1668000
b11 *
1"
#1671000
0"
#1674000
b0 *
0$
1"
#1677000
0"
#1680000
b1 *
1"
#1683000
0"
#1686000
b10 *
1"
#1689000
0"
#1692000
b11 *
1"
#1695000
0"
#1698000
b0 *
1$
1"
#1701000
0"
#1704000
b1 *
1"
#1707000
0"
#1710000
b10 *
1"
#1713000
0"
#1716000
b11 *
1"
#1719000
0"
#1722000
b0 *
0$
1"
#1725000
0"
#1728000
b1 *
1"
#1731000
0"
#1734000
b10 *
1"
#1737000
0"
#1740000
b11 *
1"
#1743000
0"
#1746000
b0 *
1$
1"
#1749000
0"
#1752000
b1 *
1"
#1755000
0"
#1758000
b10 *
1"
#1761000
0"
#1764000
b11 *
1"
#1767000
0"
#1770000
b0 *
0$
1"
#1773000
0"
#1776000
b1 *
1"
#1779000
0"
#1782000
b10 *
1"
#1785000
0"
#1788000
b11 *
1"
#1791000
0"
#1794000
b0 *
1$
1"
#1797000
0"
#1800000
b1 *
1"
#1803000
0"
#1806000
b10 *
1"
#1809000
0"
#1812000
b11 *
1"
#1815000
0"
#1818000
b0 *
0$
1"
#1821000
0"
#1824000
b1 *
1"
#1827000
0"
#1830000
b10 *
1"
#1833000
0"
#1836000
b11 *
1"
#1839000
0"
#1842000
b0 *
1$
1"
#1845000
0"
#1848000
b1 *
1"
#1851000
0"
#1854000
b10 *
1"
#1857000
0"
#1860000
b11 *
1"
#1863000
0"
#1866000
b0 *
0$
1"
#1869000
0"
#1872000
b1 *
1"
#1875000
0"
#1878000
b10 *
1"
#1881000
0"
#1884000
b11 *
1"
#1887000
0"
#1890000
b0 *
1$
1"
#1893000
0"
#1896000
b1 *
1"
#1899000
0"
#1902000
b10 *
1"
#1905000
0"
#1908000
b11 *
1"
#1911000
0"
#1914000
b0 *
0$
1"
#1917000
0"
#1920000
b1 *
1"
#1923000
0"
#1926000
b10 *
1"
#1929000
0"
#1932000
b11 *
1"
#1935000
0"
#1938000
b0 *
1$
1"
#1941000
0"
#1944000
b1 *
1"
#1947000
0"
#1950000
b10 *
1"
#1953000
0"
#1956000
b11 *
1"
#1959000
0"
#1962000
b0 *
0$
1"
#1965000
0"
#1968000
b1 *
1"
#1971000
0"
#1974000
b10 *
1"
#1977000
0"
#1980000
b11 *
1"
#1983000
0"
#1986000
b0 *
1$
1"
#1989000
0"
#1992000
b1 *
1"
#1995000
0"
#1998000
b10 *
1"
#2001000
0"
#2004000
b11 *
1"
#2007000
0"
#2010000
b0 *
0$
1"
#2013000
0"
#2016000
b1 *
1"
#2019000
0"
#2022000
b10 *
1"
#2025000
0"
#2028000
b11 *
1"
#2031000
0"
#2034000
b0 *
1$
1"
#2037000
0"
#2040000
b1 *
1"
#2043000
0"
#2046000
b10 *
1"
#2049000
0"
#2052000
b11 *
1"
#2055000
0"
#2058000
b0 *
0$
1"
#2061000
0"
#2064000
b1 *
1"
#2067000
0"
#2070000
b10 *
1"
#2073000
0"
#2076000
b11 *
1"
#2079000
0"
#2082000
b0 *
1$
1"
#2085000
0"
#2088000
b1 *
1"
#2091000
0"
#2094000
b10 *
1"
#2097000
0"
#2100000
b11 *
1"
#2103000
0"
#2106000
b0 *
0$
1"
#2109000
0"
#2112000
b1 *
1"
#2115000
0"
#2118000
b10 *
1"
#2121000
0"
#2124000
b11 *
1"
#2127000
0"
#2130000
b0 *
1$
1"
#2133000
0"
#2136000
b1 *
1"
#2139000
0"
#2142000
b10 *
1"
#2145000
0"
#2148000
b11 *
1"
#2151000
0"
#2154000
b0 *
0$
1"
#2157000
0"
#2160000
b1 *
1"
#2163000
0"
#2166000
b10 *
1"
#2169000
0"
#2172000
b11 *
1"
#2175000
0"
#2178000
b0 *
1$
1"
#2180000
0#
#2181000
0"
#2184000
b1 *
1"
#2187000
0"
#2190000
b10 *
1"
1#
#2193000
0"
#2196000
b11 *
1"
#2199000
0"
#2200000
0#
#2202000
b0 *
0$
1"
#2205000
0"
#2208000
b1 *
1"
#2210000
1#
#2211000
0"
#2214000
b10 *
1"
#2217000
0"
#2220000
b11 *
1"
0#
#2223000
0"
#2226000
b100 &
b0 *
1$
1"
#2229000
0"
#2230000
1#
#2232000
b1 *
1"
#2235000
0"
#2238000
b10 *
1"
#2240000
0#
#2241000
0"
#2244000
b11 *
1"
#2247000
0"
#2250000
b0 *
0$
1"
1#
#2253000
0"
#2256000
b1 *
1"
#2259000
0"
#2260000
0#
#2262000
b10 *
1"
#2265000
0"
#2268000
b11 *
1"
#2271000
0"
#2274000
0!
0%
b0 &
b0 *
1$
1"
#2277000
0"
#2280000
b1 *
1"
#2283000
0"
#2286000
b10 *
1"
#2289000
0"
#2292000
b11 *
1"
#2295000
0"
#2298000
b0 *
0$
1"
#2301000
0"
#2304000
b1 *
1"
#2307000
0"
#2310000
b10 *
1"
#2313000
0"
#2316000
b11 *
1"
#2319000
0"
#2322000
b0 *
1$
1"
#2325000
0"
#2328000
b1 *
1"
#2331000
0"
#2334000
b10 *
1"
#2337000
0"
#2340000
b11 *
1"
#2343000
0"
#2346000
b0 *
0$
1"
#2349000
0"
#2352000
b1 *
1"
#2355000
0"
#2358000
b10 *
1"
#2361000
0"
#2364000
b11 *
1"
#2367000
0"
#2370000
b0 *
1$
1"
#2373000
0"
#2376000
b1 *
1"
#2379000
0"
#2382000
b10 *
1"
#2385000
0"
#2388000
b11 *
1"
#2391000
0"
#2394000
b0 *
0$
1"
#2397000
0"
#2400000
b1 *
1"
#2403000
0"
#2406000
b10 *
1"
#2409000
0"
#2412000
b11 *
1"
#2415000
0"
#2418000
b0 *
1$
1"
#2421000
0"
#2424000
b1 *
1"
#2427000
0"
#2430000
b10 *
1"
#2433000
0"
#2436000
b11 *
1"
#2439000
0"
#2442000
b0 *
0$
1"
#2445000
0"
#2448000
b1 *
1"
#2451000
0"
#2454000
b10 *
1"
#2457000
0"
#2460000
b11 *
1"
#2463000
0"
#2466000
b0 *
1$
1"
#2469000
0"
#2472000
b1 *
1"
#2475000
0"
#2478000
b10 *
1"
#2481000
0"
#2484000
b11 *
1"
#2487000
0"
#2490000
b0 *
0$
1"
#2493000
0"
#2496000
b1 *
1"
#2499000
0"
#2502000
b10 *
1"
#2505000
0"
#2508000
b11 *
1"
#2511000
0"
#2514000
b0 *
1$
1"
#2517000
0"
#2520000
b1 *
1"
#2523000
0"
#2526000
b10 *
1"
#2529000
0"
#2532000
b11 *
1"
#2535000
0"
#2538000
b0 *
0$
1"
#2541000
0"
#2544000
b1 *
1"
#2547000
0"
#2550000
b10 *
1"
#2553000
0"
#2556000
b11 *
1"
#2559000
0"
#2562000
b0 *
1$
1"
#2565000
0"
#2568000
b1 *
1"
#2571000
0"
#2574000
b10 *
1"
#2577000
0"
#2580000
b11 *
1"
#2583000
0"
#2586000
b0 *
0$
1"
#2589000
0"
#2592000
b1 *
1"
#2595000
0"
#2598000
b10 *
1"
#2601000
0"
#2604000
b11 *
1"
#2607000
0"
#2610000
b0 *
1$
1"
#2613000
0"
#2616000
b1 *
1"
#2619000
0"
#2622000
b10 *
1"
#2625000
0"
#2628000
b11 *
1"
#2631000
0"
#2634000
b0 *
0$
1"
#2637000
0"
#2640000
b1 *
1"
#2643000
0"
#2646000
b10 *
1"
#2649000
0"
#2652000
b11 *
1"
#2655000
0"
#2658000
b0 *
1$
1"
#2661000
0"
#2664000
b1 *
1"
#2667000
0"
#2670000
b10 *
1"
#2673000
0"
#2676000
b11 *
1"
#2679000
0"
#2682000
b0 *
0$
1"
#2685000
0"
#2688000
b1 *
1"
#2691000
0"
#2694000
b10 *
1"
#2697000
0"
#2700000
b11 *
1"
#2703000
0"
#2706000
b0 *
1$
1"
#2709000
0"
#2712000
b1 *
1"
#2715000
0"
#2718000
b10 *
1"
#2721000
0"
#2724000
b11 *
1"
#2727000
0"
#2730000
b0 *
0$
1"
#2733000
0"
#2736000
b1 *
1"
#2739000
0"
#2742000
b10 *
1"
#2745000
0"
#2748000
b11 *
1"
#2751000
0"
#2754000
b0 *
1$
1"
#2757000
0"
#2760000
b1 *
1"
#2763000
0"
#2766000
b10 *
1"
#2769000
0"
#2772000
b11 *
1"
#2775000
0"
#2778000
b0 *
0$
1"
#2781000
0"
#2784000
b1 *
1"
#2787000
0"
#2790000
b10 *
1"
#2793000
0"
#2796000
b11 *
1"
#2799000
0"
#2802000
b0 *
1$
1"
#2805000
0"
#2808000
b1 *
1"
#2811000
0"
#2814000
b10 *
1"
#2817000
0"
#2820000
b11 *
1"
#2823000
0"
#2826000
b0 *
0$
1"
#2829000
0"
#2832000
b1 *
1"
#2835000
0"
#2838000
b10 *
1"
#2841000
0"
#2844000
b11 *
1"
#2847000
0"
#2850000
b0 *
1$
1"
#2853000
0"
#2856000
b1 *
1"
#2859000
0"
#2862000
b10 *
1"
#2865000
0"
#2868000
b11 *
1"
#2870000
1#
#2871000
0"
#2874000
b0 *
0$
1"
#2877000
0"
#2880000
b1 *
1"
0#
#2883000
0"
#2886000
b10 *
1"
#2889000
0"
#2890000
1#
#2892000
b11 *
1"
#2895000
0"
#2898000
b1 &
b0 *
1$
1"
#2900000
0#
#2901000
0"
#2904000
b1 *
1"
#2907000
0"
#2910000
b10 *
1"
1#
#2913000
0"
#2916000
b11 *
1"
#2919000
0"
#2920000
0#
#2922000
b0 *
0$
1"
#2925000
0"
#2928000
b1 *
1"
#2930000
1#
#2931000
0"
#2934000
b10 *
1"
#2937000
0"
#2940000
b11 *
1"
0#
#2943000
0"
#2946000
b10 &
b0 *
1$
1"
#2949000
0"
#2950000
1#
#2952000
b1 *
1"
#2955000
0"
#2958000
b10 *
1"
#2961000
0"
#2964000
b11 *
1"
#2967000
0"
#2970000
b0 *
0$
1"
#2973000
0"
#2976000
b1 *
1"
#2979000
0"
#2982000
b10 *
1"
#2985000
0"
#2988000
b11 *
1"
#2991000
0"
#2994000
b1 &
b0 *
1$
1"
#2997000
0"
#3000000
b1 *
1"
#3003000
0"
#3006000
b10 *
1"
#3009000
0"
#3012000
b11 *
1"
#3015000
0"
#3018000
b0 *
0$
1"
#3021000
0"
#3024000
b1 *
1"
#3027000
0"
#3030000
b10 *
1"
#3033000
0"
#3036000
b11 *
1"
#3039000
0"
#3042000
1!
1%
b11 &
b0 *
1$
1"
#3045000
0"
#3048000
b1 *
1"
#3051000
0"
#3054000
b10 *
1"
#3057000
0"
#3060000
b11 *
1"
#3063000
0"
#3066000
b0 *
0$
1"
#3069000
0"
#3072000
b1 *
1"
#3075000
0"
#3078000
b10 *
1"
#3081000
0"
#3084000
b11 *
1"
#3087000
0"
#3090000
b0 *
1$
1"
#3093000
0"
#3096000
b1 *
1"
#3099000
0"
#3102000
b10 *
1"
#3105000
0"
#3108000
b11 *
1"
#3111000
0"
#3114000
b0 *
0$
1"
#3117000
0"
#3120000
b1 *
1"
#3123000
0"
#3126000
b10 *
1"
#3129000
0"
#3132000
b11 *
1"
#3135000
0"
#3138000
b0 *
1$
1"
#3141000
0"
#3144000
b1 *
1"
#3147000
0"
#3150000
b10 *
1"
#3153000
0"
#3156000
b11 *
1"
#3159000
0"
#3162000
b0 *
0$
1"
#3165000
0"
#3168000
b1 *
1"
#3171000
0"
#3174000
b10 *
1"
#3177000
0"
#3180000
b11 *
1"
#3183000
0"
#3186000
b0 *
1$
1"
#3189000
0"
#3192000
b1 *
1"
#3195000
0"
#3198000
b10 *
1"
#3201000
0"
#3204000
b11 *
1"
#3207000
0"
#3210000
b0 *
0$
1"
#3213000
0"
#3216000
b1 *
1"
#3219000
0"
#3222000
b10 *
1"
#3225000
0"
#3228000
b11 *
1"
#3231000
0"
#3234000
b0 *
1$
1"
#3237000
0"
#3240000
b1 *
1"
#3243000
0"
#3246000
b10 *
1"
#3249000
0"
#3252000
b11 *
1"
#3255000
0"
#3258000
b0 *
0$
1"
#3261000
0"
#3264000
b1 *
1"
#3267000
0"
#3270000
b10 *
1"
#3273000
0"
#3276000
b11 *
1"
#3279000
0"
#3282000
b0 *
1$
1"
#3285000
0"
#3288000
b1 *
1"
#3291000
0"
#3294000
b10 *
1"
#3297000
0"
#3300000
b11 *
1"
#3303000
0"
#3306000
b0 *
0$
1"
#3309000
0"
#3312000
b1 *
1"
#3315000
0"
#3318000
b10 *
1"
#3321000
0"
#3324000
b11 *
1"
#3327000
0"
#3330000
b0 *
1$
1"
#3333000
0"
#3336000
b1 *
1"
#3339000
0"
#3342000
b10 *
1"
#3345000
0"
#3348000
b11 *
1"
#3351000
0"
#3354000
b0 *
0$
1"
#3357000
0"
#3360000
b1 *
1"
#3363000
0"
#3366000
b10 *
1"
#3369000
0"
#3372000
b11 *
1"
#3375000
0"
#3378000
b0 *
1$
1"
#3381000
0"
#3384000
b1 *
1"
#3387000
0"
#3390000
b10 *
1"
#3393000
0"
#3396000
b11 *
1"
#3399000
0"
#3402000
b0 *
0$
1"
#3405000
0"
#3408000
b1 *
1"
#3411000
0"
#3414000
b10 *
1"
#3417000
0"
#3420000
b11 *
1"
#3423000
0"
#3426000
b0 *
1$
1"
#3429000
0"
#3432000
b1 *
1"
#3435000
0"
#3438000
b10 *
1"
#3441000
0"
#3444000
b11 *
1"
#3447000
0"
#3450000
b0 *
0$
1"
#3453000
0"
#3456000
b1 *
1"
#3459000
0"
#3462000
b10 *
1"
#3465000
0"
#3468000
b11 *
1"
#3471000
0"
#3474000
b0 *
1$
1"
#3477000
0"
#3480000
b1 *
1"
#3483000
0"
#3486000
b10 *
1"
#3489000
0"
#3492000
b11 *
1"
#3495000
0"
#3498000
b0 *
0$
1"
#3501000
0"
#3504000
b1 *
1"
#3507000
0"
#3510000
b10 *
1"
#3513000
0"
#3516000
b11 *
1"
#3519000
0"
#3522000
b0 *
1$
1"
#3525000
0"
#3528000
b1 *
1"
#3531000
0"
#3534000
b10 *
1"
#3537000
0"
#3540000
b11 *
1"
#3543000
0"
#3546000
b0 *
0$
1"
#3549000
0"
#3552000
b1 *
1"
#3555000
0"
#3558000
b10 *
1"
#3560000
0#
#3561000
0"
#3564000
b11 *
1"
#3567000
0"
#3570000
b0 *
1$
1"
1#
#3573000
0"
#3576000
b1 *
1"
#3579000
0"
#3580000
0#
#3582000
b10 *
1"
#3585000
0"
#3588000
b11 *
1"
#3590000
1#
#3591000
0"
#3594000
b0 *
0$
1"
#3597000
0"
#3600000
b1 *
1"
0#
#3603000
0"
#3606000
b10 *
1"
#3609000
0"
#3610000
1#
#3612000
b11 *
1"
#3615000
0"
#3618000
b0 *
1$
1"
#3620000
0#
#3621000
0"
#3624000
b1 *
1"
#3627000
0"
#3630000
b10 *
1"
1#
#3633000
0"
#3636000
b11 *
1"
#3639000
0"
#3640000
0#
#3642000
b0 *
0$
1"
#3645000
0"
#3648000
b1 *
1"
#3651000
0"
#3654000
b10 *
1"
#3657000
0"
#3660000
b11 *
1"
#3663000
0"
#3666000
b100 &
b0 *
1$
1"
#3669000
0"
#3672000
b1 *
1"
#3675000
0"
#3678000
b10 *
1"
#3681000
0"
#3684000
b11 *
1"
#3687000
0"
#3690000
b0 *
0$
1"
#3693000
0"
#3696000
b1 *
1"
#3699000
0"
#3702000
b10 *
1"
#3705000
0"
#3708000
b11 *
1"
#3711000
0"
#3714000
0!
0%
b0 &
b0 *
1$
1"
#3717000
0"
#3720000
b1 *
1"
#3723000
0"
#3726000
b10 *
1"
#3729000
0"
#3732000
b11 *
1"
#3735000
0"
#3738000
b0 *
0$
1"
#3741000
0"
#3744000
b1 *
1"
#3747000
0"
#3750000
b10 *
1"
#3753000
0"
#3756000
b11 *
1"
#3759000
0"
#3762000
b0 *
1$
1"
#3765000
0"
#3768000
b1 *
1"
#3771000
0"
#3774000
b10 *
1"
#3777000
0"
#3780000
b11 *
1"
#3783000
0"
#3786000
b0 *
0$
1"
#3789000
0"
#3792000
b1 *
1"
#3795000
0"
#3798000
b10 *
1"
#3801000
0"
#3804000
b11 *
1"
#3807000
0"
#3810000
b0 *
1$
1"
#3813000
0"
#3816000
b1 *
1"
#3819000
0"
#3822000
b10 *
1"
#3825000
0"
#3828000
b11 *
1"
#3831000
0"
#3834000
b0 *
0$
1"
#3837000
0"
#3840000
b1 *
1"
#3843000
0"
#3846000
b10 *
1"
#3849000
0"
#3852000
b11 *
1"
#3855000
0"
#3858000
b0 *
1$
1"
#3861000
0"
#3864000
b1 *
1"
#3867000
0"
#3870000
b10 *
1"
#3873000
0"
#3876000
b11 *
1"
#3879000
0"
#3882000
b0 *
0$
1"
#3885000
0"
#3888000
b1 *
1"
#3891000
0"
#3894000
b10 *
1"
#3897000
0"
#3900000
b11 *
1"
#3903000
0"
#3906000
b0 *
1$
1"
#3909000
0"
#3912000
b1 *
1"
#3915000
0"
#3918000
b10 *
1"
#3921000
0"
#3924000
b11 *
1"
#3927000
0"
#3930000
b0 *
0$
1"
#3933000
0"
#3936000
b1 *
1"
#3939000
0"
#3942000
b10 *
1"
#3945000
0"
#3948000
b11 *
1"
#3951000
0"
#3954000
b0 *
1$
1"
#3957000
0"
#3960000
b1 *
1"
#3963000
0"
#3966000
b10 *
1"
#3969000
0"
#3972000
b11 *
1"
#3975000
0"
#3978000
b0 *
0$
1"
#3981000
0"
#3984000
b1 *
1"
#3987000
0"
