digitcircuit/teamwork/project_1/project_1.srcs/sim_1/new/main_wave.vcd
$date
	Fri Feb 24 16:54:39 2023
$end
$version
	Icarus Verilog
$end
$timescale
	1ps
$end
$scope module ma_simu $end
$var wire 8 ! AN [7:0] $end
$var wire 8 " IN [7:0] $end
$var wire 8 # alert [7:0] $end
$var wire 1 $ TMP $end
$var wire 8 % SEG [7:0] $end
$var reg 1 & CLK $end
$var reg 1 ' EN $end
$var reg 1 ( MODIFY $end
$var reg 1 ) NEXT_CP_ini $end
$var reg 1 * SET $end
$var reg 1 + TYPEe $end
$var reg 8 , bin [7:0] $end
$var reg 1 - reset $end
$scope module utt $end
$var wire 8 . AN [7:0] $end
$var wire 1 & CLK $end
$var wire 1 ' EN $end
$var wire 8 / IN [7:0] $end
$var wire 1 ( MODIFY $end
$var wire 1 0 NEXT_CP $end
$var wire 1 ) NEXT_CP_ini $end
$var wire 1 * SET $end
$var wire 1 1 SURE $end
$var wire 1 $ TMP $end
$var wire 1 2 TYPE $end
$var wire 1 + TYPEe $end
$var wire 8 3 alert [7:0] $end
$var wire 8 4 an [7:0] $end
$var wire 1 - reset $end
$var wire 1 5 rst $end
$var wire 8 6 weekday_now [7:0] $end
$var wire 8 7 w [7:0] $end
$var wire 8 8 second_now [7:0] $end
$var wire 8 9 s [7:0] $end
$var wire 32 : out [31:0] $end
$var wire 8 ; ori [7:0] $end
$var wire 8 < minute_now [7:0] $end
$var wire 8 = minute_alarm_now [7:0] $end
$var wire 8 > ma [7:0] $end
$var wire 8 ? m [7:0] $end
$var wire 8 @ hour_now [7:0] $end
$var wire 8 A hour_alarm_now [7:0] $end
$var wire 8 B ha [7:0] $end
$var wire 8 C h [7:0] $end
$var wire 8 D SEG [7:0] $end
$var wire 1 E CP_500MS $end
$var wire 1 F CP_1S $end
$var wire 1 G CP_100MS $end
$var wire 1 H CO3 $end
$var wire 1 I CO2 $end
$var wire 1 J CO1 $end
$var reg 4 K LD [3:0] $end
$var reg 2 L LD2 [1:0] $end
$var reg 2 M MODE0 [1:0] $end
$var reg 1 N MODE1 $end
$var reg 8 O hour [7:0] $end
$var reg 8 P hour_alarm [7:0] $end
$var reg 8 Q minute [7:0] $end
$var reg 8 R minute_alarm [7:0] $end
$var reg 8 S second [7:0] $end
$var reg 8 T weekday [7:0] $end
$scope module div100ms $end
$var wire 1 & clk_1M $end
$var wire 32 U mult [31:0] $end
$var wire 1 5 reset $end
$var reg 1 G clk_1K $end
$var reg 32 V counter [31:0] $end
$upscope $end
$scope module div1s $end
$var wire 1 & clk_1M $end
$var wire 32 W mult [31:0] $end
$var wire 1 5 reset $end
$var reg 1 F clk_1K $end
$var reg 32 X counter [31:0] $end
$upscope $end
$scope module div500ms $end
$var wire 1 & clk_1M $end
$var wire 32 Y mult [31:0] $end
$var wire 1 5 reset $end
$var reg 1 E clk_1K $end
$var reg 32 Z counter [31:0] $end
$upscope $end
$scope module h_a $end
$var wire 1 [ CP $end
$var wire 8 \ D [7:0] $end
$var wire 1 ' EN $end
$var wire 1 ] LD $end
$var wire 8 ^ LMT [7:0] $end
$var wire 1 5 RST $end
$var reg 1 _ CO $end
$var reg 8 ` Q [7:0] $end
$upscope $end
$scope module hou $end
$var wire 8 a D [7:0] $end
$var wire 1 ' EN $end
$var wire 1 b LD $end
$var wire 8 c LMT [7:0] $end
$var wire 1 5 RST $end
$var wire 1 I CP $end
$var reg 1 H CO $end
$var reg 8 d Q [7:0] $end
$upscope $end
$scope module m_a $end
$var wire 1 e CP $end
$var wire 8 f D [7:0] $end
$var wire 1 ' EN $end
$var wire 1 g LD $end
$var wire 8 h LMT [7:0] $end
$var wire 1 5 RST $end
$var reg 1 i CO $end
$var reg 8 j Q [7:0] $end
$upscope $end
$scope module minu $end
$var wire 8 k D [7:0] $end
$var wire 1 ' EN $end
$var wire 1 l LD $end
$var wire 8 m LMT [7:0] $end
$var wire 1 5 RST $end
$var wire 1 J CP $end
$var reg 1 I CO $end
$var reg 8 n Q [7:0] $end
$upscope $end
$scope module sec $end
$var wire 1 F CP $end
$var wire 8 o D [7:0] $end
$var wire 1 ' EN $end
$var wire 1 p LD $end
$var wire 8 q LMT [7:0] $end
$var wire 1 5 RST $end
$var reg 1 J CO $end
$var reg 8 r Q [7:0] $end
$upscope $end
$scope module u1 $end
$var wire 8 s bin [7:0] $end
$var reg 8 t BCD [7:0] $end
$var reg 8 u prev_bin [7:0] $end
$var reg 16 v tmp [15:0] $end
$var integer 32 w i [31:0] $end
$upscope $end
$scope module u2 $end
$var wire 8 x bin [7:0] $end
$var reg 8 y BCD [7:0] $end
$var reg 8 z prev_bin [7:0] $end
$var reg 16 { tmp [15:0] $end
$var integer 32 | i [31:0] $end
$upscope $end
$scope module u3 $end
$var wire 8 } bin [7:0] $end
$var reg 8 ~ BCD [7:0] $end
$var reg 8 !" prev_bin [7:0] $end
$var reg 16 "" tmp [15:0] $end
$var integer 32 #" i [31:0] $end
$upscope $end
$scope module u4 $end
$var wire 8 $" bin [7:0] $end
$var reg 8 %" BCD [7:0] $end
$var reg 8 &" prev_bin [7:0] $end
$var reg 16 '" tmp [15:0] $end
$var integer 32 (" i [31:0] $end
$upscope $end
$scope module u5 $end
$var wire 8 )" bin [7:0] $end
$var reg 8 *" BCD [7:0] $end
$var reg 8 +" prev_bin [7:0] $end
$var reg 16 ," tmp [15:0] $end
$var integer 32 -" i [31:0] $end
$upscope $end
$scope module u6 $end
$var wire 8 ." bin [7:0] $end
$var reg 8 /" BCD [7:0] $end
$var reg 8 0" prev_bin [7:0] $end
$var reg 16 1" tmp [15:0] $end
$var integer 32 2" i [31:0] $end
$upscope $end
$scope module utt $end
$var wire 8 3" an [7:0] $end
$var wire 1 & clk $end
$var wire 32 4" data [31:0] $end
$var wire 1 5 reset $end
$var wire 8 5" seg [7:0] $end
$var wire 1 6" clk_5ms $end
$var reg 4 7" data_in [3:0] $end
$var reg 3 8" select [2:0] $end
$scope module sh $end
$var wire 4 9" data [3:0] $end
$var wire 3 :" seletct [2:0] $end
$var reg 8 ;" AN [7:0] $end
$var reg 8 <" an [7:0] $end
$var reg 8 =" seg [7:0] $end
$upscope $end
$scope module utt $end
$var wire 1 & clk_1M $end
$var wire 32 >" mult [31:0] $end
$var wire 1 5 reset $end
$var reg 1 6" clk_1K $end
$var reg 32 ?" counter [31:0] $end
$upscope $end
$upscope $end
$scope module week $end
$var wire 1 H CP $end
$var wire 8 @" D [7:0] $end
$var wire 1 ' EN $end
$var wire 1 A" LD $end
$var wire 8 B" LMT [7:0] $end
$var wire 1 5 RST $end
$var reg 1 C" CO $end
$var reg 8 D" Q [7:0] $end
$upscope $end
$upscope $end
$upscope $end
$enddefinitions $end
#0
$dumpvars
b0 D"
0C"
b111 B"
0A"
bz @"
b1 ?"
b1100001101010000 >"
bx ="
bx <"
bx ;"
bx :"
bx 9"
bx 8"
bx 7"
06"
bx 5"
b11110000000011111111000000001111 4"
bx 3"
b0 2"
b0 1"
b0 0"
b0 /"
b0 ."
b0 -"
b0 ,"
b0 +"
b0 *"
b0 )"
b0 ("
b0 '"
b0 &"
b0 %"
b0 $"
b0 #"
b0 ""
b0 !"
b0 ~
b0 }
b0 |
b0 {
b0 z
b0 y
b0 x
b0 w
b0 v
b0 u
b0 t
b0 s
b0 r
b111100 q
0p
b0 o
b0 n
b111100 m
0l
bz k
b0 j
0i
b111100 h
0g
bz f
ze
b0 d
b11000 c
0b
bz a
b0 `
0_
b11000 ^
0]
bz \
z[
b1 Z
b11001 Y
b1 X
b110010 W
b1 V
b1 U
b0 T
b0 S
b0 R
b0 Q
b0 P
b0 O
xN
bx M
b0 L
b0 K
0J
0I
0H
0G
0F
0E
bx D
b0 C
b0 B
b0 A
b0 @
b0 ?
b0 >
b0 =
b0 <
b0xx00xx0 ;
b11110000000011111111000000001111 :
b0 9
b0 8
b0 7
b0 6
15
bz 4
bz 3
02
01
00
bz /
bx .
1-
b0 ,
0+
0*
0)
0(
1'
0&
bx %
1$
bz #
bz "
bx !
$end
#5000
b10 ?"
b0 V
1G
b10 Z
b10 X
1&
#10000
0&
#15000
b11 X
b11 Z
b1 V
b11 ?"
1&
#20000
0&
#25000
b100 ?"
b0 V
0G
b100 Z
b100 X
1&
#30000
0&
#35000
b101 X
b101 Z
b1 V
b101 ?"
1&
#40000
0&
#45000
b110 ?"
b0 V
1G
b110 Z
b110 X
1&
#50000
0&
#55000
b111 X
b111 Z
b1 V
b111 ?"
1&
#60000
0&
#65000
b1000 ?"
b0 V
0G
b1000 Z
b1000 X
1&
#70000
0&
#75000
b1001 X
b1001 Z
b1 V
b1001 ?"
1&
#80000
0&
#85000
b1010 ?"
b0 V
1G
b1010 Z
b1010 X
1&
#90000
0&
#95000
b1011 X
b1011 Z
b1 V
b1011 ?"
1&
#100000
0&
#105000
b1100 ?"
b0 V
0G
b1100 Z
b1100 X
1&
#110000
0&
#115000
b1101 X
b1101 Z
b1 V
b1101 ?"
1&
#120000
0&
#125000
b1110 ?"
b0 V
1G
b1110 Z
b1110 X
1&
#130000
0&
#135000
b1111 X
b1111 Z
b1 V
b1111 ?"
1&
#140000
0&
#145000
b10000 ?"
b0 V
0G
b10000 Z
b10000 X
1&
#150000
0&
#155000
b10001 X
b10001 Z
b1 V
b10001 ?"
1&
#160000
0&
#165000
b10010 ?"
b0 V
1G
b10010 Z
b10010 X
1&
#170000
0&
#175000
b10011 X
b10011 Z
b1 V
b10011 ?"
1&
#180000
0&
#185000
b10100 ?"
b0 V
0G
b10100 Z
b10100 X
1&
#190000
0&
#195000
b10101 X
b10101 Z
b1 V
b10101 ?"
1&
#200000
0&
#205000
b10110 ?"
b0 V
1G
b10110 Z
b10110 X
1&
#210000
0&
#215000
b10111 X
b10111 Z
b1 V
b10111 ?"
1&
#220000
0&
#225000
b11000 ?"
b0 V
0G
b11000 Z
b11000 X
1&
#230000
0&
#235000
b11001 X
b11001 Z
b1 V
b11001 ?"
1&
#240000
0&
#245000
b11010 ?"
b0 V
1G
b0 Z
1E
b11010 X
1&
#250000
0&
#255000
b11011 X
b1 Z
b1 V
b11011 ?"
1&
#260000
0&
#265000
b11100 ?"
b0 V
0G
b10 Z
b11100 X
1&
#270000
0&
#275000
b11101 X
b11 Z
b1 V
b11101 ?"
1&
#280000
0&
#285000
b11110 ?"
b0 V
1G
b100 Z
b11110 X
1&
#290000
0&
#295000
b11111 X
b101 Z
b1 V
b11111 ?"
1&
#300000
0&
#305000
b100000 ?"
b0 V
0G
b110 Z
b100000 X
1&
#310000
0&
#315000
b100001 X
b111 Z
b1 V
b100001 ?"
1&
#320000
0&
#325000
b100010 ?"
b0 V
1G
b1000 Z
b100010 X
1&
#330000
0&
#335000
b100011 X
b1001 Z
b1 V
b100011 ?"
1&
#340000
0&
#345000
b100100 ?"
b0 V
0G
b1010 Z
b100100 X
1&
#350000
0&
#355000
b100101 X
b1011 Z
b1 V
b100101 ?"
1&
#360000
0&
#365000
b100110 ?"
b0 V
1G
b1100 Z
b100110 X
1&
#370000
0&
#375000
b100111 X
b1101 Z
b1 V
b100111 ?"
1&
#380000
0&
#385000
b101000 ?"
b0 V
0G
b1110 Z
b101000 X
1&
#390000
0&
#395000
b101001 X
b1111 Z
b1 V
b101001 ?"
1&
#400000
0&
#405000
b101010 ?"
b0 V
1G
b10000 Z
b101010 X
1&
#410000
0&
#415000
b101011 X
b10001 Z
b1 V
b101011 ?"
1&
#420000
0&
#425000
b101100 ?"
b0 V
0G
b10010 Z
b101100 X
1&
#430000
0&
#435000
b101101 X
b10011 Z
b1 V
b101101 ?"
1&
#440000
0&
#445000
b101110 ?"
b0 V
1G
b10100 Z
b101110 X
1&
#450000
0&
#455000
b101111 X
b10101 Z
b1 V
b101111 ?"
1&
#460000
0&
#465000
b110000 ?"
b0 V
0G
b10110 Z
b110000 X
1&
#470000
0&
#475000
b110001 X
b10111 Z
b1 V
b110001 ?"
1&
#480000
0&
#485000
b110010 ?"
b0 V
1G
b11000 Z
b110010 X
1&
#490000
0&
#495000
b0 X
1F
b11001 Z
b1 V
b110011 ?"
1&
#500000
0&
#505000
b110100 ?"
b0 V
0G
b0 Z
0E
b1 X
1&
#510000
0&
#515000
b10 X
b1 Z
b1 V
b110101 ?"
1&
#520000
0&
#525000
b110110 ?"
b0 V
1G
b10 Z
b11 X
1&
#530000
0&
#535000
b100 X
b11 Z
b1 V
b110111 ?"
1&
#540000
0&
#545000
b111000 ?"
b0 V
0G
b100 Z
b101 X
1&
#550000
0&
#555000
b110 X
b101 Z
b1 V
b111001 ?"
1&
#560000
0&
#565000
b111010 ?"
b0 V
1G
b110 Z
b111 X
1&
#570000
0&
#575000
b1000 X
b111 Z
b1 V
b111011 ?"
1&
#580000
0&
#585000
b111100 ?"
b0 V
0G
b1000 Z
b1001 X
1&
#590000
0&
#595000
b1010 X
b1001 Z
b1 V
b111101 ?"
1&
#600000
0&
#605000
b111110 ?"
b0 V
1G
b1010 Z
b1011 X
1&
#610000
0&
#615000
b1100 X
b1011 Z
b1 V
b111111 ?"
1&
#620000
0&
#625000
b1000000 ?"
b0 V
0G
b1100 Z
b1101 X
1&
#630000
0&
#635000
b1110 X
b1101 Z
b1 V
b1000001 ?"
1&
#640000
0&
#645000
b1000010 ?"
b0 V
1G
b1110 Z
b1111 X
1&
#650000
0&
#655000
b10000 X
b1111 Z
b1 V
b1000011 ?"
1&
#660000
0&
#665000
b1000100 ?"
b0 V
0G
b10000 Z
b10001 X
1&
#670000
0&
#675000
b10010 X
b10001 Z
b1 V
b1000101 ?"
1&
#680000
0&
#685000
b1000110 ?"
b0 V
1G
b10010 Z
b10011 X
1&
#690000
0&
#695000
b10100 X
b10011 Z
b1 V
b1000111 ?"
1&
#700000
0&
#705000
b1001000 ?"
b0 V
0G
b10100 Z
b10101 X
1&
#710000
0&
#715000
b10110 X
b10101 Z
b1 V
b1001001 ?"
1&
#720000
0&
#725000
b1001010 ?"
b0 V
1G
b10110 Z
b10111 X
1&
#730000
0&
#735000
b11000 X
b10111 Z
b1 V
b1001011 ?"
1&
#740000
0&
#745000
b1001100 ?"
b0 V
0G
b11000 Z
b11001 X
1&
#750000
0&
#755000
b11010 X
b11001 Z
b1 V
b1001101 ?"
1&
#760000
0&
#765000
b1001110 ?"
b0 V
1G
b0 Z
1E
b11011 X
1&
#770000
0&
#775000
b11100 X
b1 Z
b1 V
b1001111 ?"
1&
#780000
0&
#785000
b1010000 ?"
b0 V
0G
b10 Z
b11101 X
1&
#790000
0&
#795000
b11110 X
b11 Z
b1 V
b1010001 ?"
1&
#800000
0&
#805000
b1010010 ?"
b0 V
1G
b100 Z
b11111 X
1&
#810000
0&
#815000
b100000 X
b101 Z
b1 V
b1010011 ?"
1&
#820000
0&
#825000
b1010100 ?"
b0 V
0G
b110 Z
b100001 X
1&
#830000
0&
#835000
b100010 X
b111 Z
b1 V
b1010101 ?"
1&
#840000
0&
#845000
b1010110 ?"
b0 V
1G
b1000 Z
b100011 X
1&
#850000
0&
#855000
b100100 X
b1001 Z
b1 V
b1010111 ?"
1&
#860000
0&
#865000
b1011000 ?"
b0 V
0G
b1010 Z
b100101 X
1&
#870000
0&
#875000
b100110 X
b1011 Z
b1 V
b1011001 ?"
1&
#880000
0&
#885000
b1011010 ?"
b0 V
1G
b1100 Z
b100111 X
1&
#890000
0&
#895000
b101000 X
b1101 Z
b1 V
b1011011 ?"
1&
#900000
0&
#905000
b1011100 ?"
b0 V
0G
b1110 Z
b101001 X
1&
#910000
0&
#915000
b101010 X
b1111 Z
b1 V
b1011101 ?"
1&
#920000
0&
#925000
b1011110 ?"
b0 V
1G
b10000 Z
b101011 X
1&
#930000
0&
#935000
b101100 X
b10001 Z
b1 V
b1011111 ?"
1&
#940000
0&
#945000
b1100000 ?"
b0 V
0G
b10010 Z
b101101 X
1&
#950000
0&
#955000
b101110 X
b10011 Z
b1 V
b1100001 ?"
1&
#960000
0&
#965000
b1100010 ?"
b0 V
1G
b10100 Z
b101111 X
1&
#970000
0&
#975000
b110000 X
b10101 Z
b1 V
b1100011 ?"
1&
#980000
0&
#985000
b1100100 ?"
b0 V
0G
b10110 Z
b110001 X
1&
#990000
0&
#995000
b110010 X
b10111 Z
b1 V
b1100101 ?"
1&
#1000000
0&
#1005000
b1100110 ?"
b0 V
1G
b11000 Z
b0 X
0F
1&
#1010000
0&
#1015000
b1 X
b11001 Z
b1 V
b1100111 ?"
1&
#1020000
0&
#1025000
b1101000 ?"
b0 V
0G
b0 Z
0E
b10 X
1&
#1030000
0&
#1035000
b11 X
b1 Z
b1 V
b1101001 ?"
1&
#1040000
0&
#1045000
b1101010 ?"
b0 V
1G
b10 Z
b100 X
1&
#1050000
0&
#1055000
b101 X
b11 Z
b1 V
b1101011 ?"
1&
#1060000
0&
#1065000
b1101100 ?"
b0 V
0G
b100 Z
b110 X
1&
#1070000
0&
#1075000
b111 X
b101 Z
b1 V
b1101101 ?"
1&
#1080000
0&
#1085000
b1101110 ?"
b0 V
1G
b110 Z
b1000 X
1&
#1090000
0&
#1095000
b1001 X
b111 Z
b1 V
b1101111 ?"
1&
#1100000
0&
#1105000
b1110000 ?"
b0 V
0G
b1000 Z
b1010 X
1&
#1110000
0&
#1115000
b1011 X
b1001 Z
b1 V
b1110001 ?"
1&
#1120000
0&
#1125000
b1110010 ?"
b0 V
1G
b1010 Z
b1100 X
1&
#1130000
0&
#1135000
b1101 X
b1011 Z
b1 V
b1110011 ?"
1&
#1140000
0&
#1145000
b1110100 ?"
b0 V
0G
b1100 Z
b1110 X
1&
#1150000
0&
#1155000
b1111 X
b1101 Z
b1 V
b1110101 ?"
1&
#1160000
0&
#1165000
b1110110 ?"
b0 V
1G
b1110 Z
b10000 X
1&
#1170000
0&
#1175000
b10001 X
b1111 Z
b1 V
b1110111 ?"
1&
#1180000
0&
#1185000
b1111000 ?"
b0 V
0G
b10000 Z
b10010 X
1&
#1190000
0&
#1195000
b10011 X
b10001 Z
b1 V
b1111001 ?"
1&
#1200000
0&
#1205000
b1111010 ?"
b0 V
1G
b10010 Z
b10100 X
1&
#1210000
0&
#1215000
b10101 X
b10011 Z
b1 V
b1111011 ?"
1&
#1220000
0&
#1225000
b1111100 ?"
b0 V
0G
b10100 Z
b10110 X
1&
#1230000
0&
#1235000
b10111 X
b10101 Z
b1 V
b1111101 ?"
1&
#1240000
0&
#1245000
b1111110 ?"
b0 V
1G
b10110 Z
b11000 X
1&
#1250000
0&
#1255000
b11001 X
b10111 Z
b1 V
b1111111 ?"
1&
#1260000
0&
#1265000
b10000000 ?"
b0 V
0G
b11000 Z
b11010 X
1&
#1270000
0&
#1275000
b11011 X
b11001 Z
b1 V
b10000001 ?"
1&
#1280000
0&
#1285000
b10000010 ?"
b0 V
1G
b0 Z
1E
b11100 X
1&
#1290000
0&
#1295000
b11101 X
b1 Z
b1 V
b10000011 ?"
1&
#1300000
0&
#1305000
b10000100 ?"
b0 V
0G
b10 Z
b11110 X
1&
#1310000
0&
#1315000
b11111 X
b11 Z
b1 V
b10000101 ?"
1&
#1320000
0&
#1325000
b10000110 ?"
b0 V
1G
b100 Z
b100000 X
1&
#1330000
0&
#1335000
b100001 X
b101 Z
b1 V
b10000111 ?"
1&
#1340000
0&
#1345000
b10001000 ?"
b0 V
0G
b110 Z
b100010 X
1&
#1350000
0&
#1355000
b100011 X
b111 Z
b1 V
b10001001 ?"
1&
#1360000
0&
#1365000
b10001010 ?"
b0 V
1G
b1000 Z
b100100 X
1&
#1370000
0&
#1375000
b100101 X
b1001 Z
b1 V
b10001011 ?"
1&
#1380000
0&
#1385000
b10001100 ?"
b0 V
0G
b1010 Z
b100110 X
1&
#1390000
0&
#1395000
b100111 X
b1011 Z
b1 V
b10001101 ?"
1&
#1400000
0&
#1405000
b10001110 ?"
b0 V
1G
b1100 Z
b101000 X
1&
#1410000
0&
#1415000
b101001 X
b1101 Z
b1 V
b10001111 ?"
1&
#1420000
0&
#1425000
b10010000 ?"
b0 V
0G
b1110 Z
b101010 X
1&
#1430000
0&
#1435000
b101011 X
b1111 Z
b1 V
b10010001 ?"
1&
#1440000
0&
#1445000
b10010010 ?"
b0 V
1G
b10000 Z
b101100 X
1&
#1450000
0&
#1455000
b101101 X
b10001 Z
b1 V
b10010011 ?"
1&
#1460000
0&
#1465000
b10010100 ?"
b0 V
0G
b10010 Z
b101110 X
1&
#1470000
0&
#1475000
b101111 X
b10011 Z
b1 V
b10010101 ?"
1&
#1480000
0&
#1485000
b10010110 ?"
b0 V
1G
b10100 Z
b110000 X
1&
#1490000
0&
#1495000
b110001 X
b10101 Z
b1 V
b10010111 ?"
1&
#1500000
0&
#1505000
b10011000 ?"
b0 V
0G
b10110 Z
b110010 X
1&
#1510000
0&
#1515000
b0 X
1F
b10111 Z
b1 V
b10011001 ?"
1&
#1520000
0&
#1525000
b10011010 ?"
b0 V
1G
b11000 Z
b1 X
1&
#1530000
0&
#1535000
b10 X
b11001 Z
b1 V
b10011011 ?"
1&
#1540000
0&
#1545000
b10011100 ?"
b0 V
0G
b0 Z
0E
b11 X
1&
#1550000
0&
#1555000
b100 X
b1 Z
b1 V
b10011101 ?"
1&
#1560000
0&
#1565000
b10011110 ?"
b0 V
1G
b10 Z
b101 X
1&
#1570000
0&
#1575000
b110 X
b11 Z
b1 V
b10011111 ?"
1&
#1580000
0&
#1585000
b10100000 ?"
b0 V
0G
b100 Z
b111 X
1&
#1590000
0&
#1595000
b1000 X
b101 Z
b1 V
b10100001 ?"
1&
#1600000
0&
#1605000
b10100010 ?"
b0 V
1G
b110 Z
b1001 X
1&
#1610000
0&
#1615000
b1010 X
b111 Z
b1 V
b10100011 ?"
1&
#1620000
0&
#1625000
b10100100 ?"
b0 V
0G
b1000 Z
b1011 X
1&
#1630000
0&
#1635000
b1100 X
b1001 Z
b1 V
b10100101 ?"
1&
#1640000
0&
#1645000
b10100110 ?"
b0 V
1G
b1010 Z
b1101 X
1&
#1650000
0&
#1655000
b1110 X
b1011 Z
b1 V
b10100111 ?"
1&
#1660000
0&
#1665000
b10101000 ?"
b0 V
0G
b1100 Z
b1111 X
1&
#1670000
0&
#1675000
b10000 X
b1101 Z
b1 V
b10101001 ?"
1&
#1680000
0&
#1685000
b10101010 ?"
b0 V
1G
b1110 Z
b10001 X
1&
#1690000
0&
#1695000
b10010 X
b1111 Z
b1 V
b10101011 ?"
1&
#1700000
0&
#1705000
b10101100 ?"
b0 V
0G
b10000 Z
b10011 X
1&
#1710000
0&
#1715000
b10100 X
b10001 Z
b1 V
b10101101 ?"
1&
#1720000
0&
#1725000
b10101110 ?"
b0 V
1G
b10010 Z
b10101 X
1&
#1730000
0&
#1735000
b10110 X
b10011 Z
b1 V
b10101111 ?"
1&
#1740000
0&
#1745000
b10110000 ?"
b0 V
0G
b10100 Z
b10111 X
1&
#1750000
0&
#1755000
b11000 X
b10101 Z
b1 V
b10110001 ?"
1&
#1760000
0&
#1765000
b10110010 ?"
b0 V
1G
b10110 Z
b11001 X
1&
#1770000
0&
#1775000
b11010 X
b10111 Z
b1 V
b10110011 ?"
1&
#1780000
0&
#1785000
b10110100 ?"
b0 V
0G
b11000 Z
b11011 X
1&
#1790000
0&
#1795000
b11100 X
b11001 Z
b1 V
b10110101 ?"
1&
#1800000
0&
#1805000
b10110110 ?"
b0 V
1G
b0 Z
1E
b11101 X
1&
#1810000
0&
#1815000
b11110 X
b1 Z
b1 V
b10110111 ?"
1&
#1820000
0&
#1825000
b10111000 ?"
b0 V
0G
b10 Z
b11111 X
1&
#1830000
0&
#1835000
b100000 X
b11 Z
b1 V
b10111001 ?"
1&
#1840000
0&
#1845000
b10111010 ?"
b0 V
1G
b100 Z
b100001 X
1&
#1850000
0&
#1855000
b100010 X
b101 Z
b1 V
b10111011 ?"
1&
#1860000
0&
#1865000
b10111100 ?"
b0 V
0G
b110 Z
b100011 X
1&
#1870000
0&
#1875000
b100100 X
b111 Z
b1 V
b10111101 ?"
1&
#1880000
0&
#1885000
b10111110 ?"
b0 V
1G
b1000 Z
b100101 X
1&
#1890000
0&
#1895000
b100110 X
b1001 Z
b1 V
b10111111 ?"
1&
#1900000
0&
#1905000
b11000000 ?"
b0 V
0G
b1010 Z
b100111 X
1&
#1910000
0&
#1915000
b101000 X
b1011 Z
b1 V
b11000001 ?"
1&
#1920000
0&
#1925000
b11000010 ?"
b0 V
1G
b1100 Z
b101001 X
1&
#1930000
0&
#1935000
b101010 X
b1101 Z
b1 V
b11000011 ?"
1&
#1940000
0&
#1945000
b11000100 ?"
b0 V
0G
b1110 Z
b101011 X
1&
#1950000
0&
#1955000
b101100 X
b1111 Z
b1 V
b11000101 ?"
1&
#1960000
0&
#1965000
b11000110 ?"
b0 V
1G
b10000 Z
b101101 X
1&
#1970000
0&
#1975000
b101110 X
b10001 Z
b1 V
b11000111 ?"
1&
#1980000
0&
#1985000
b11001000 ?"
b0 V
0G
b10010 Z
b101111 X
1&
#1990000
0&
#1995000
b110000 X
b10011 Z
b1 V
b11001001 ?"
1&
#2000000
0&
#2005000
b11001010 ?"
b0 V
1G
b10100 Z
b110001 X
1&
#2010000
0&
#2015000
b110010 X
b10101 Z
b1 V
b11001011 ?"
1&
#2020000
0&
#2025000
b11001100 ?"
b0 V
0G
b10110 Z
b0 X
0F
1&
#2030000
0&
#2035000
b1 X
b10111 Z
b1 V
b11001101 ?"
1&
#2040000
0&
#2045000
b11001110 ?"
b0 V
1G
b11000 Z
b10 X
1&
#2050000
0&
#2055000
b11 X
b11001 Z
b1 V
b11001111 ?"
1&
#2060000
0&
#2065000
b11010000 ?"
b0 V
0G
b0 Z
0E
b100 X
1&
#2070000
0&
#2075000
b101 X
b1 Z
b1 V
b11010001 ?"
1&
#2080000
0&
#2085000
b11010010 ?"
b0 V
1G
b10 Z
b110 X
1&
#2090000
0&
#2095000
b111 X
b11 Z
b1 V
b11010011 ?"
1&
#2100000
0&
#2105000
b11010100 ?"
b0 V
0G
b100 Z
b1000 X
1&
#2110000
0&
#2115000
b1001 X
b101 Z
b1 V
b11010101 ?"
1&
#2120000
0&
#2125000
b11010110 ?"
b0 V
1G
b110 Z
b1010 X
1&
#2130000
0&
#2135000
b1011 X
b111 Z
b1 V
b11010111 ?"
1&
#2140000
0&
#2145000
b11011000 ?"
b0 V
0G
b1000 Z
b1100 X
1&
#2150000
0&
#2155000
b1101 X
b1001 Z
b1 V
b11011001 ?"
1&
#2160000
0&
#2165000
b11011010 ?"
b0 V
1G
b1010 Z
b1110 X
1&
#2170000
0&
#2175000
b1111 X
b1011 Z
b1 V
b11011011 ?"
1&
#2180000
0&
#2185000
b11011100 ?"
b0 V
0G
b1100 Z
b10000 X
1&
#2190000
0&
#2195000
b10001 X
b1101 Z
b1 V
b11011101 ?"
1&
#2200000
0&
#2205000
b11011110 ?"
b0 V
1G
b1110 Z
b10010 X
1&
#2210000
0&
#2215000
b10011 X
b1111 Z
b1 V
b11011111 ?"
1&
#2220000
0&
#2225000
b11100000 ?"
b0 V
0G
b10000 Z
b10100 X
1&
#2230000
0&
#2235000
b10101 X
b10001 Z
b1 V
b11100001 ?"
1&
#2240000
0&
#2245000
b11100010 ?"
b0 V
1G
b10010 Z
b10110 X
1&
#2250000
0&
#2255000
b10111 X
b10011 Z
b1 V
b11100011 ?"
1&
#2260000
0&
#2265000
b11100100 ?"
b0 V
0G
b10100 Z
b11000 X
1&
#2270000
0&
#2275000
b11001 X
b10101 Z
b1 V
b11100101 ?"
1&
#2280000
0&
#2285000
b11100110 ?"
b0 V
1G
b10110 Z
b11010 X
1&
#2290000
0&
#2295000
b11011 X
b10111 Z
b1 V
b11100111 ?"
1&
#2300000
0&
#2305000
b11101000 ?"
b0 V
0G
b11000 Z
b11100 X
1&
#2310000
0&
#2315000
b11101 X
b11001 Z
b1 V
b11101001 ?"
1&
#2320000
0&
#2325000
b11101010 ?"
b0 V
1G
b0 Z
1E
b11110 X
1&
#2330000
0&
#2335000
b11111 X
b1 Z
b1 V
b11101011 ?"
1&
#2340000
0&
#2345000
b11101100 ?"
b0 V
0G
b10 Z
b100000 X
1&
#2350000
0&
#2355000
b100001 X
b11 Z
b1 V
b11101101 ?"
1&
#2360000
0&
#2365000
b11101110 ?"
b0 V
1G
b100 Z
b100010 X
1&
#2370000
0&
#2375000
b100011 X
b101 Z
b1 V
b11101111 ?"
1&
#2380000
0&
#2385000
b11110000 ?"
b0 V
0G
b110 Z
b100100 X
1&
#2390000
0&
#2395000
b100101 X
b111 Z
b1 V
b11110001 ?"
1&
#2400000
0&
#2405000
b11110010 ?"
b0 V
1G
b1000 Z
b100110 X
1&
#2410000
0&
#2415000
b100111 X
b1001 Z
b1 V
b11110011 ?"
1&
#2420000
0&
#2425000
b11110100 ?"
b0 V
0G
b1010 Z
b101000 X
1&
#2430000
0&
#2435000
b101001 X
b1011 Z
b1 V
b11110101 ?"
1&
#2440000
0&
#2445000
b11110110 ?"
b0 V
1G
b1100 Z
b101010 X
1&
#2450000
0&
#2455000
b101011 X
b1101 Z
b1 V
b11110111 ?"
1&
#2460000
0&
#2465000
b11111000 ?"
b0 V
0G
b1110 Z
b101100 X
1&
#2470000
0&
#2475000
b101101 X
b1111 Z
b1 V
b11111001 ?"
1&
#2480000
0&
#2485000
b11111010 ?"
b0 V
1G
b10000 Z
b101110 X
1&
#2490000
0&
#2495000
b101111 X
b10001 Z
b1 V
b11111011 ?"
1&
#2500000
0&
#2505000
b11111100 ?"
b0 V
0G
b10010 Z
b110000 X
1&
#2510000
0&
#2515000
b110001 X
b10011 Z
b1 V
b11111101 ?"
1&
#2520000
0&
#2525000
b11111110 ?"
b0 V
1G
b10100 Z
b110010 X
1&
#2530000
0&
