digitcircuit/teamwork/project_1/project_1.sim/sim_1/behav/xsim/button_wave.vcd
$date
   Thu Feb 23 16:43:50 2023
$end
$version
  2020.1
$end
$timescale
  1ps
$end
$scope module button_sim $end
$var reg 1 ! CP $end
$var reg 1 " IN $end
$var wire 1 # OUT $end
$scope module u1 $end
$var wire 1 $ clk $end
$var wire 1 % X $end
$var wire 1 # Y $end
$var reg 3 & ST [2:0] $end
$var reg 1 ' A $end
$var reg 32 ( f [31:0] $end
$var wire 1 ) CP $end
$scope module dvd $end
$var wire 1 * reset $end
$var wire 32 + mult [31:0] $end
$var wire 1 $ clk_1M $end
$var reg 1 , clk_1K $end
$var reg 32 - counter [31:0] $end
$upscope $end
$upscope $end
$upscope $end
$enddefinitions $end
#0
$dumpvars
1!
0"
0#
1$
0%
b0 &
0'
b11 (
0)
z*
b11 +
0,
b1 -
$end
#3000
0!
0$
#6000
1!
1$
b10 -
#9000
0!
0$
#12000
1!
1$
b11 -
#15000
0!
0$
#18000
1!
1$
1)
1,
b0 -
#21000
0!
0$
#24000
1!
1$
b1 -
#27000
0!
0$
#30000
1!
1$
b10 -
#33000
0!
0$
#36000
1!
1$
b11 -
#39000
0!
0$
#42000
1!
1$
0)
0,
b0 -
#45000
0!
0$
#48000
1!
1$
b1 -
#51000
0!
0$
#54000
1!
1$
b10 -
#57000
0!
0$
#60000
1!
1$
b11 -
#63000
0!
0$
#66000
1!
1$
1)
1,
b0 -
#69000
0!
0$
#72000
1!
1$
b1 -
#75000
0!
0$
#78000
1!
1$
b10 -
#81000
0!
0$
#84000
1!
1$
b11 -
#87000
0!
0$
#90000
1!
1$
0)
0,
b0 -
#93000
0!
0$
#96000
1!
1$
b1 -
#99000
0!
0$
#102000
1!
1$
b10 -
#105000
0!
0$
#108000
1!
1$
b11 -
#110000
1"
1%
#111000
0!
0$
#114000
1!
1$
b1 &
1)
1,
b0 -
#117000
0!
0$
#120000
1!
0"
1$
0%
b1 -
#123000
0!
0$
#126000
1!
1$
b10 -
#129000
0!
0$
#130000
1"
1%
#132000
1!
1$
b11 -
#135000
0!
0$
#138000
1!
1$
0)
0,
b0 -
#140000
0"
0%
#141000
0!
0$
#144000
1!
1$
b1 -
#147000
0!
0$
#150000
1!
1"
1$
1%
b10 -
#153000
0!
0$
#156000
1!
1$
b11 -
#159000
0!
0$
#160000
0"
0%
#162000
1!
1$
b10 &
1)
1,
b0 -
#165000
0!
0$
#168000
1!
1$
b1 -
#170000
1"
1%
#171000
0!
0$
#174000
1!
1$
b10 -
#177000
0!
0$
#180000
1!
0"
1$
0%
b11 -
#183000
0!
0$
#186000
1!
1$
0)
0,
b0 -
#189000
0!
0$
#190000
1"
1%
#192000
1!
1$
b1 -
#195000
0!
0$
#198000
1!
1$
b10 -
#201000
0!
0$
#204000
1!
1$
b11 -
#207000
0!
0$
#210000
1!
1$
b1 &
1)
1,
b0 -
#213000
0!
0$
#216000
1!
1$
b1 -
#219000
0!
0$
#222000
1!
1$
b10 -
#225000
0!
0$
#228000
1!
1$
b11 -
#231000
0!
0$
#234000
1!
1$
0)
0,
b0 -
#237000
0!
0$
#240000
1!
1$
b1 -
#243000
0!
0$
#246000
1!
1$
b10 -
#249000
0!
0$
#252000
1!
1$
b11 -
#255000
0!
0$
#258000
1!
1#
1$
b11 &
1'
1)
1,
b0 -
#261000
0!
0$
#264000
1!
1$
b1 -
#267000
0!
0$
#270000
1!
1$
b10 -
#273000
0!
0$
#276000
1!
1$
b11 -
#279000
0!
0$
#282000
1!
1$
0)
0,
b0 -
#285000
0!
0$
#288000
1!
1$
b1 -
#291000
0!
0$
#294000
1!
1$
b10 -
#297000
0!
0$
#300000
1!
1$
b11 -
#303000
0!
0$
#306000
1!
1$
1)
1,
b0 -
#309000
0!
0$
#312000
1!
1$
b1 -
#315000
0!
0$
#318000
1!
1$
b10 -
#321000
0!
0$
#324000
1!
1$
b11 -
#327000
0!
0$
#330000
1!
1$
0)
0,
b0 -
#333000
0!
0$
#336000
1!
1$
b1 -
#339000
0!
0$
#342000
1!
1$
b10 -
#345000
0!
0$
#348000
1!
1$
b11 -
#351000
0!
0$
#354000
1!
1$
1)
1,
b0 -
#357000
0!
0$
#360000
1!
1$
b1 -
#363000
0!
0$
#366000
1!
1$
b10 -
#369000
0!
0$
#372000
1!
1$
b11 -
#375000
0!
0$
#378000
1!
1$
0)
0,
b0 -
#381000
0!
0$
#384000
1!
1$
b1 -
#387000
0!
0$
#390000
1!
1$
b10 -
#393000
0!
0$
#396000
1!
1$
b11 -
#399000
0!
0$
#402000
1!
1$
1)
1,
b0 -
#405000
0!
0$
#408000
1!
1$
b1 -
#411000
0!
0$
#414000
1!
1$
b10 -
#417000
0!
0$
#420000
1!
1$
b11 -
#423000
0!
0$
#426000
1!
1$
0)
0,
b0 -
#429000
0!
0$
#432000
1!
1$
b1 -
#435000
0!
0$
#438000
1!
1$
b10 -
#441000
0!
0$
#444000
1!
1$
b11 -
#447000
0!
0$
#450000
1!
1$
1)
1,
b0 -
#453000
0!
0$
#456000
1!
1$
b1 -
#459000
0!
0$
#462000
1!
1$
b10 -
#465000
0!
0$
#468000
1!
1$
b11 -
#471000
0!
0$
#474000
1!
1$
0)
0,
b0 -
#477000
0!
0$
#480000
1!
1$
b1 -
#483000
0!
0$
#486000
1!
1$
b10 -
#489000
0!
0$
#492000
1!
1$
b11 -
#495000
0!
0$
#498000
1!
1$
1)
1,
b0 -
#501000
0!
0$
#504000
1!
1$
b1 -
#507000
0!
0$
#510000
1!
1$
b10 -
#513000
0!
0$
#516000
1!
1$
b11 -
#519000
0!
0$
#522000
1!
1$
0)
0,
b0 -
#525000
0!
0$
#528000
1!
1$
b1 -
#531000
0!
0$
#534000
1!
1$
b10 -
#537000
0!
0$
#540000
1!
1$
b11 -
#543000
0!
0$
#546000
1!
1$
1)
1,
b0 -
#549000
0!
0$
#552000
1!
1$
b1 -
#555000
0!
0$
#558000
1!
1$
b10 -
#561000
0!
0$
#564000
1!
1$
b11 -
#567000
0!
0$
#570000
1!
1$
0)
0,
b0 -
#573000
0!
0$
#576000
1!
1$
b1 -
#579000
0!
0$
#582000
1!
1$
b10 -
#585000
0!
0$
#588000
1!
1$
b11 -
#591000
0!
0$
#594000
1!
1$
1)
1,
b0 -
#597000
0!
0$
#600000
1!
1$
b1 -
#603000
0!
0$
#606000
1!
1$
b10 -
#609000
0!
0$
#612000
1!
1$
b11 -
#615000
0!
0$
#618000
1!
1$
0)
0,
b0 -
#621000
0!
0$
#624000
1!
1$
b1 -
#627000
0!
0$
#630000
1!
1$
b10 -
#633000
0!
0$
#636000
1!
1$
b11 -
#639000
0!
0$
#642000
1!
1$
1)
1,
b0 -
#645000
0!
0$
#648000
1!
1$
b1 -
#651000
0!
0$
#654000
1!
1$
b10 -
#657000
0!
0$
#660000
1!
1$
b11 -
#663000
0!
0$
#666000
1!
1$
0)
0,
b0 -
#669000
0!
0$
#672000
1!
1$
b1 -
#675000
0!
0$
#678000
1!
1$
b10 -
#681000
0!
0$
#684000
1!
1$
b11 -
#687000
0!
0$
#690000
1!
1$
1)
1,
b0 -
#693000
0!
0$
#696000
1!
1$
b1 -
#699000
0!
0$
#702000
1!
1$
b10 -
#705000
0!
0$
#708000
1!
1$
b11 -
#711000
0!
0$
#714000
1!
1$
0)
0,
b0 -
#717000
0!
0$
#720000
1!
1$
b1 -
#723000
0!
0$
#726000
1!
1$
b10 -
#729000
0!
0$
#732000
1!
1$
b11 -
#735000
0!
0$
#738000
1!
1$
1)
1,
b0 -
#741000
0!
0$
#744000
1!
1$
b1 -
#747000
0!
0$
#750000
1!
1$
b10 -
#753000
0!
0$
#756000
1!
1$
b11 -
#759000
0!
0$
#762000
1!
1$
0)
0,
b0 -
#765000
0!
0$
#768000
1!
1$
b1 -
#771000
0!
0$
#774000
1!
1$
b10 -
#777000
0!
0$
#780000
1!
1$
b11 -
#783000
0!
0$
#786000
1!
1$
1)
1,
b0 -
#789000
0!
0$
#792000
1!
1$
b1 -
#795000
0!
0$
#798000
1!
1$
b10 -
#800000
0"
0%
#801000
0!
0$
#804000
1!
1$
b11 -
#807000
0!
0$
#810000
1!
1"
1$
1%
0)
0,
b0 -
#813000
0!
0$
#816000
1!
1$
b1 -
#819000
0!
0$
#820000
0"
0%
#822000
1!
1$
b10 -
#825000
0!
0$
#828000
1!
1$
b11 -
#830000
1"
1%
#831000
0!
0$
#834000
1!
1$
1)
1,
b0 -
#837000
0!
0$
#840000
1!
0"
1$
0%
b1 -
#843000
0!
0$
#846000
1!
1$
b10 -
#849000
0!
0$
#850000
1"
1%
#852000
1!
1$
b11 -
#855000
0!
0$
#858000
1!
1$
0)
0,
b0 -
#860000
0"
0%
#861000
0!
0$
#864000
1!
1$
b1 -
#867000
0!
0$
#870000
1!
1"
1$
1%
b10 -
#873000
0!
0$
#876000
1!
1$
b11 -
#879000
0!
0$
#880000
0"
0%
#882000
1!
1$
b100 &
1)
1,
b0 -
#885000
0!
0$
#888000
1!
1$
b1 -
#891000
0!
0$
#894000
1!
1$
b10 -
#897000
0!
0$
#900000
1!
1$
b11 -
#903000
0!
0$
#906000
1!
1$
0)
0,
b0 -
#909000
0!
0$
#912000
1!
1$
b1 -
#915000
0!
0$
#918000
1!
1$
b10 -
#921000
0!
0$
#924000
1!
1$
b11 -
#927000
0!
0$
#930000
1!
0#
1$
b0 &
0'
1)
1,
b0 -
#933000
0!
0$
#936000
1!
1$
b1 -
#939000
0!
0$
#942000
1!
1$
b10 -
#945000
0!
0$
#948000
1!
1$
b11 -
#951000
0!
0$
#954000
1!
1$
0)
0,
b0 -
#957000
0!
0$
#960000
1!
1$
b1 -
#963000
0!
0$
#966000
1!
1$
b10 -
#969000
0!
0$
#972000
1!
1$
b11 -
#975000
0!
0$
#978000
1!
1$
1)
1,
b0 -
#981000
0!
0$
#984000
1!
1$
b1 -
#987000
0!
0$
#990000
1!
1$
b10 -
#993000
0!
0$
#996000
1!
1$
b11 -
